PO-PC/simulation/qsim/PO-PC.msim.vcd
$comment
	File created using the following command:
		vcd file PO-PC.msim.vcd -direction
$end
$date
	Sun Nov 24 01:21:42 2019
$end
$version
	ModelSim Version 10.5b
$end
$timescale
	1ps
$end

$scope module toplevel_vhd_vec_tst $end
$var wire 1 ! clearn $end
$var wire 1 " clock $end
$var wire 1 # maior [7] $end
$var wire 1 $ maior [6] $end
$var wire 1 % maior [5] $end
$var wire 1 & maior [4] $end
$var wire 1 ' maior [3] $end
$var wire 1 ( maior [2] $end
$var wire 1 ) maior [1] $end
$var wire 1 * maior [0] $end
$var wire 1 + menor [7] $end
$var wire 1 , menor [6] $end
$var wire 1 - menor [5] $end
$var wire 1 . menor [4] $end
$var wire 1 / menor [3] $end
$var wire 1 0 menor [2] $end
$var wire 1 1 menor [1] $end
$var wire 1 2 menor [0] $end
$var wire 1 3 qtdMaior [7] $end
$var wire 1 4 qtdMaior [6] $end
$var wire 1 5 qtdMaior [5] $end
$var wire 1 6 qtdMaior [4] $end
$var wire 1 7 qtdMaior [3] $end
$var wire 1 8 qtdMaior [2] $end
$var wire 1 9 qtdMaior [1] $end
$var wire 1 : qtdMaior [0] $end

$scope module i1 $end
$var wire 1 ; gnd $end
$var wire 1 < vcc $end
$var wire 1 = unknown $end
$var wire 1 > devoe $end
$var wire 1 ? devclrn $end
$var wire 1 @ devpor $end
$var wire 1 A ww_devoe $end
$var wire 1 B ww_devclrn $end
$var wire 1 C ww_devpor $end
$var wire 1 D ww_clock $end
$var wire 1 E ww_clearn $end
$var wire 1 F ww_maior [7] $end
$var wire 1 G ww_maior [6] $end
$var wire 1 H ww_maior [5] $end
$var wire 1 I ww_maior [4] $end
$var wire 1 J ww_maior [3] $end
$var wire 1 K ww_maior [2] $end
$var wire 1 L ww_maior [1] $end
$var wire 1 M ww_maior [0] $end
$var wire 1 N ww_menor [7] $end
$var wire 1 O ww_menor [6] $end
$var wire 1 P ww_menor [5] $end
$var wire 1 Q ww_menor [4] $end
$var wire 1 R ww_menor [3] $end
$var wire 1 S ww_menor [2] $end
$var wire 1 T ww_menor [1] $end
$var wire 1 U ww_menor [0] $end
$var wire 1 V ww_qtdMaior [7] $end
$var wire 1 W ww_qtdMaior [6] $end
$var wire 1 X ww_qtdMaior [5] $end
$var wire 1 Y ww_qtdMaior [4] $end
$var wire 1 Z ww_qtdMaior [3] $end
$var wire 1 [ ww_qtdMaior [2] $end
$var wire 1 \ ww_qtdMaior [1] $end
$var wire 1 ] ww_qtdMaior [0] $end
$var wire 1 ^ \~QUARTUS_CREATED_GND~I_combout\ $end
$var wire 1 _ \clock~input_o\ $end
$var wire 1 ` \clock~inputCLKENA0_outclk\ $end
$var wire 1 a \ft|state_reg~0_combout\ $end
$var wire 1 b \clearn~input_o\ $end
$var wire 1 c \ft|state_reg~1_combout\ $end
$var wire 1 d \ft|state_reg~3_combout\ $end
$var wire 1 e \ft|state_reg~5_combout\ $end
$var wire 1 f \ft|state_reg~4_combout\ $end
$var wire 1 g \ft|state_reg~2_combout\ $end
$var wire 1 h \pc1|Mux24~0_combout\ $end
$var wire 1 i \pc1|Mux25~0_combout\ $end
$var wire 1 j \pc1|Mux8~0_combout\ $end
$var wire 1 k \pc1|Mux9~0_combout\ $end
$var wire 1 l \pc1|Mux27~0_combout\ $end
$var wire 1 m \pc1|Mux20~0_combout\ $end
$var wire 1 n \pc1|Mux21~0_combout\ $end
$var wire 1 o \pc1|Mux22~0_combout\ $end
$var wire 1 p \pc1|Mux23~0_combout\ $end
$var wire 1 q \LM|Equal1~0_combout\ $end
$var wire 1 r \pc1|Mux12~0_combout\ $end
$var wire 1 s \pc1|Mux13~0_combout\ $end
$var wire 1 t \pc1|Mux14~0_combout\ $end
$var wire 1 u \pc1|Mux15~0_combout\ $end
$var wire 1 v \pc1|Mux19~0_combout\ $end
$var wire 1 w \pc1|Mux10~0_combout\ $end
$var wire 1 x \pc1|Mux11~0_combout\ $end
$var wire 1 y \pc1|Mux17~0_combout\ $end
$var wire 1 z \LM|Equal0~0_combout\ $end
$var wire 1 { \LM|Equal6~0_combout\ $end
$var wire 1 | \LM|Selector6~2_combout\ $end
$var wire 1 } \LM|Selector6~0_combout\ $end
$var wire 1 ~ \LM|Selector5~2_combout\ $end
$var wire 1 !! \LM|Selector5~0_combout\ $end
$var wire 1 "! \LM|WideNor0~3_combout\ $end
$var wire 1 #! \LM|WideNor0~2_combout\ $end
$var wire 1 $! \LM|Equal1~1_combout\ $end
$var wire 1 %! \LM|Equal2~0_combout\ $end
$var wire 1 &! \LM|WideNor0~1_combout\ $end
$var wire 1 '! \LM|Selector7~0_combout\ $end
$var wire 1 (! \LM|Equal5~0_combout\ $end
$var wire 1 )! \LM|Selector7~1_combout\ $end
$var wire 1 *! \pc1|Mux28~0_combout\ $end
$var wire 1 +! \pc1|Mux29~0_combout\ $end
$var wire 1 ,! \pc1|enabler1~combout\ $end
$var wire 1 -! \LM|Equal4~0_combout\ $end
$var wire 1 .! \LM|Selector2~0_combout\ $end
$var wire 1 /! \LM|Selector1~0_combout\ $end
$var wire 1 0! \LM|Selector3~0_combout\ $end
$var wire 1 1! \po1|cmpMaior|LessThan0~0_combout\ $end
$var wire 1 2! \LM|Selector4~0_combout\ $end
$var wire 1 3! \po1|cmpMaior|LessThan0~2_combout\ $end
$var wire 1 4! \LM|WideNor0~0_combout\ $end
$var wire 1 5! \LM|Selector5~1_combout\ $end
$var wire 1 6! \LM|Selector6~1_combout\ $end
$var wire 1 7! \po1|cmpMaior|LessThan0~1_combout\ $end
$var wire 1 8! \po1|cmpMaior|LessThan0~3_combout\ $end
$var wire 1 9! \rMaior|q[0]~feeder_combout\ $end
$var wire 1 :! \pc1|Mux0~0_combout\ $end
$var wire 1 ;! \pc1|Mux1~0_combout\ $end
$var wire 1 <! \pc1|enableRMaior~combout\ $end
$var wire 1 =! \rMaior|q[4]~feeder_combout\ $end
$var wire 1 >! \po1|rgMaior|q[5]~DUPLICATE_q\ $end
$var wire 1 ?! \po1|rgMenor|q[0]~feeder_combout\ $end
$var wire 1 @! \pc1|Mux7~0_combout\ $end
$var wire 1 A! \pc1|tx~combout\ $end
$var wire 1 B! \po1|rgMenor|q[6]~feeder_combout\ $end
$var wire 1 C! \po1|rgMenor|q[5]~feeder_combout\ $end
$var wire 1 D! \po1|cmpMenor|lt~1_combout\ $end
$var wire 1 E! \po1|cmpMenor|lt~0_combout\ $end
$var wire 1 F! \po1|rgMenor|q[4]~feeder_combout\ $end
$var wire 1 G! \po1|cmpMenor|LessThan0~0_combout\ $end
$var wire 1 H! \po1|cmpMenor|LessThan0~1_combout\ $end
$var wire 1 I! \po1|cmpMenor|lt~2_combout\ $end
$var wire 1 J! \pc1|Mux2~0_combout\ $end
$var wire 1 K! \pc1|Mux3~0_combout\ $end
$var wire 1 L! \pc1|enableRMenor~combout\ $end
$var wire 1 M! \rMenor|q[1]~feeder_combout\ $end
$var wire 1 N! \rMenor|q[4]~feeder_combout\ $end
$var wire 1 O! \rMenor|q[5]~feeder_combout\ $end
$var wire 1 P! \rMenor|q[6]~feeder_combout\ $end
$var wire 1 Q! \rMenor|q[7]~feeder_combout\ $end
$var wire 1 R! \po1|rg|q[0]~1_combout\ $end
$var wire 1 S! \pc1|Mux4~0_combout\ $end
$var wire 1 T! \pc1|Mux5~0_combout\ $end
$var wire 1 U! \pc1|enableQTD~combout\ $end
$var wire 1 V! \po1|rg|q[0]~0_combout\ $end
$var wire 1 W! \po1|smd|Add0~1_sumout\ $end
$var wire 1 X! \po1|smd|Add0~2\ $end
$var wire 1 Y! \po1|smd|Add0~5_sumout\ $end
$var wire 1 Z! \po1|smd|Add0~6\ $end
$var wire 1 [! \po1|smd|Add0~9_sumout\ $end
$var wire 1 \! \po1|smd|Add0~10\ $end
$var wire 1 ]! \po1|smd|Add0~13_sumout\ $end
$var wire 1 ^! \po1|smd|Add0~14\ $end
$var wire 1 _! \po1|smd|Add0~17_sumout\ $end
$var wire 1 `! \po1|smd|Add0~18\ $end
$var wire 1 a! \po1|smd|Add0~21_sumout\ $end
$var wire 1 b! \po1|smd|Add0~22\ $end
$var wire 1 c! \po1|smd|Add0~25_sumout\ $end
$var wire 1 d! \rMaior|q\ [7] $end
$var wire 1 e! \rMaior|q\ [6] $end
$var wire 1 f! \rMaior|q\ [5] $end
$var wire 1 g! \rMaior|q\ [4] $end
$var wire 1 h! \rMaior|q\ [3] $end
$var wire 1 i! \rMaior|q\ [2] $end
$var wire 1 j! \rMaior|q\ [1] $end
$var wire 1 k! \rMaior|q\ [0] $end
$var wire 1 l! \po1|r1|q\ [7] $end
$var wire 1 m! \po1|r1|q\ [6] $end
$var wire 1 n! \po1|r1|q\ [5] $end
$var wire 1 o! \po1|r1|q\ [4] $end
$var wire 1 p! \po1|r1|q\ [3] $end
$var wire 1 q! \po1|r1|q\ [2] $end
$var wire 1 r! \po1|r1|q\ [1] $end
$var wire 1 s! \po1|r1|q\ [0] $end
$var wire 1 t! \ft|state_reg\ [5] $end
$var wire 1 u! \ft|state_reg\ [4] $end
$var wire 1 v! \ft|state_reg\ [3] $end
$var wire 1 w! \ft|state_reg\ [2] $end
$var wire 1 x! \ft|state_reg\ [1] $end
$var wire 1 y! \ft|state_reg\ [0] $end
$var wire 1 z! \rMenor|q\ [7] $end
$var wire 1 {! \rMenor|q\ [6] $end
$var wire 1 |! \rMenor|q\ [5] $end
$var wire 1 }! \rMenor|q\ [4] $end
$var wire 1 ~! \rMenor|q\ [3] $end
$var wire 1 !" \rMenor|q\ [2] $end
$var wire 1 "" \rMenor|q\ [1] $end
$var wire 1 #" \rMenor|q\ [0] $end
$var wire 1 $" \rgM|q\ [7] $end
$var wire 1 %" \rgM|q\ [6] $end
$var wire 1 &" \rgM|q\ [5] $end
$var wire 1 '" \rgM|q\ [4] $end
$var wire 1 (" \rgM|q\ [3] $end
$var wire 1 )" \rgM|q\ [2] $end
$var wire 1 *" \rgM|q\ [1] $end
$var wire 1 +" \rgM|q\ [0] $end
$var wire 1 ," \po1|rgMenor|q\ [7] $end
$var wire 1 -" \po1|rgMenor|q\ [6] $end
$var wire 1 ." \po1|rgMenor|q\ [5] $end
$var wire 1 /" \po1|rgMenor|q\ [4] $end
$var wire 1 0" \po1|rgMenor|q\ [3] $end
$var wire 1 1" \po1|rgMenor|q\ [2] $end
$var wire 1 2" \po1|rgMenor|q\ [1] $end
$var wire 1 3" \po1|rgMenor|q\ [0] $end
$var wire 1 4" \po1|rgMaior|q\ [7] $end
$var wire 1 5" \po1|rgMaior|q\ [6] $end
$var wire 1 6" \po1|rgMaior|q\ [5] $end
$var wire 1 7" \po1|rgMaior|q\ [4] $end
$var wire 1 8" \po1|rgMaior|q\ [3] $end
$var wire 1 9" \po1|rgMaior|q\ [2] $end
$var wire 1 :" \po1|rgMaior|q\ [1] $end
$var wire 1 ;" \po1|rgMaior|q\ [0] $end
$var wire 1 <" \po1|rg|q\ [7] $end
$var wire 1 =" \po1|rg|q\ [6] $end
$var wire 1 >" \po1|rg|q\ [5] $end
$var wire 1 ?" \po1|rg|q\ [4] $end
$var wire 1 @" \po1|rg|q\ [3] $end
$var wire 1 A" \po1|rg|q\ [2] $end
$var wire 1 B" \po1|rg|q\ [1] $end
$var wire 1 C" \po1|rg|q\ [0] $end
$var wire 1 D" \pc1|lerMem\ [9] $end
$var wire 1 E" \pc1|lerMem\ [8] $end
$var wire 1 F" \pc1|lerMem\ [7] $end
$var wire 1 G" \pc1|lerMem\ [6] $end
$var wire 1 H" \pc1|lerMem\ [5] $end
$var wire 1 I" \pc1|lerMem\ [4] $end
$var wire 1 J" \pc1|lerMem\ [3] $end
$var wire 1 K" \pc1|lerMem\ [2] $end
$var wire 1 L" \pc1|lerMem\ [1] $end
$var wire 1 M" \pc1|lerMem\ [0] $end
$var wire 1 N" \po1|rgMenor|ALT_INV_q\ [6] $end
$var wire 1 O" \po1|rgMenor|ALT_INV_q\ [5] $end
$var wire 1 P" \po1|rgMenor|ALT_INV_q\ [4] $end
$var wire 1 Q" \po1|rgMenor|ALT_INV_q\ [3] $end
$var wire 1 R" \po1|rgMenor|ALT_INV_q\ [2] $end
$var wire 1 S" \po1|rgMenor|ALT_INV_q\ [1] $end
$var wire 1 T" \po1|rgMenor|ALT_INV_q\ [0] $end
$var wire 1 U" \po1|rgMaior|ALT_INV_q\ [6] $end
$var wire 1 V" \po1|rgMaior|ALT_INV_q\ [5] $end
$var wire 1 W" \po1|rgMaior|ALT_INV_q\ [4] $end
$var wire 1 X" \po1|rgMaior|ALT_INV_q\ [3] $end
$var wire 1 Y" \po1|rgMaior|ALT_INV_q\ [2] $end
$var wire 1 Z" \po1|rgMaior|ALT_INV_q\ [1] $end
$var wire 1 [" \po1|rgMaior|ALT_INV_q\ [0] $end
$var wire 1 \" \pc1|ALT_INV_enabler1~combout\ $end
$var wire 1 ]" \pc1|ALT_INV_lerMem\ [9] $end
$var wire 1 ^" \pc1|ALT_INV_lerMem\ [8] $end
$var wire 1 _" \pc1|ALT_INV_lerMem\ [7] $end
$var wire 1 `" \pc1|ALT_INV_lerMem\ [6] $end
$var wire 1 a" \pc1|ALT_INV_lerMem\ [5] $end
$var wire 1 b" \pc1|ALT_INV_lerMem\ [4] $end
$var wire 1 c" \pc1|ALT_INV_lerMem\ [3] $end
$var wire 1 d" \pc1|ALT_INV_lerMem\ [2] $end
$var wire 1 e" \pc1|ALT_INV_lerMem\ [1] $end
$var wire 1 f" \pc1|ALT_INV_lerMem\ [0] $end
$var wire 1 g" \pc1|ALT_INV_enableQTD~combout\ $end
$var wire 1 h" \pc1|ALT_INV_tx~combout\ $end
$var wire 1 i" \pc1|ALT_INV_enableRMenor~combout\ $end
$var wire 1 j" \pc1|ALT_INV_enableRMaior~combout\ $end
$var wire 1 k" \pc1|ALT_INV_Mux1~0_combout\ $end
$var wire 1 l" \pc1|ALT_INV_Mux29~0_combout\ $end
$var wire 1 m" \LM|ALT_INV_WideNor0~3_combout\ $end
$var wire 1 n" \LM|ALT_INV_Selector6~2_combout\ $end
$var wire 1 o" \LM|ALT_INV_Selector5~2_combout\ $end
$var wire 1 p" \LM|ALT_INV_WideNor0~2_combout\ $end
$var wire 1 q" \pc1|ALT_INV_Mux28~0_combout\ $end
$var wire 1 r" \pc1|ALT_INV_Mux17~0_combout\ $end
$var wire 1 s" \pc1|ALT_INV_Mux15~0_combout\ $end
$var wire 1 t" \pc1|ALT_INV_Mux14~0_combout\ $end
$var wire 1 u" \pc1|ALT_INV_Mux19~0_combout\ $end
$var wire 1 v" \pc1|ALT_INV_Mux11~0_combout\ $end
$var wire 1 w" \pc1|ALT_INV_Mux10~0_combout\ $end
$var wire 1 x" \pc1|ALT_INV_Mux13~0_combout\ $end
$var wire 1 y" \pc1|ALT_INV_Mux12~0_combout\ $end
$var wire 1 z" \pc1|ALT_INV_Mux25~0_combout\ $end
$var wire 1 {" \pc1|ALT_INV_Mux23~0_combout\ $end
$var wire 1 |" \pc1|ALT_INV_Mux22~0_combout\ $end
$var wire 1 }" \pc1|ALT_INV_Mux21~0_combout\ $end
$var wire 1 ~" \pc1|ALT_INV_Mux20~0_combout\ $end
$var wire 1 !# \pc1|ALT_INV_Mux9~0_combout\ $end
$var wire 1 "# \pc1|ALT_INV_Mux8~0_combout\ $end
$var wire 1 ## \pc1|ALT_INV_Mux27~0_combout\ $end
$var wire 1 $# \pc1|ALT_INV_Mux24~0_combout\ $end
$var wire 1 %# \pc1|ALT_INV_Mux5~0_combout\ $end
$var wire 1 &# \pc1|ALT_INV_Mux4~0_combout\ $end
$var wire 1 '# \pc1|ALT_INV_Mux7~0_combout\ $end
$var wire 1 (# \LM|ALT_INV_Equal4~0_combout\ $end
$var wire 1 )# \LM|ALT_INV_WideNor0~1_combout\ $end
$var wire 1 *# \LM|ALT_INV_Equal2~0_combout\ $end
$var wire 1 +# \LM|ALT_INV_Selector6~0_combout\ $end
$var wire 1 ,# \LM|ALT_INV_WideNor0~0_combout\ $end
$var wire 1 -# \LM|ALT_INV_Selector5~0_combout\ $end
$var wire 1 .# \LM|ALT_INV_Selector7~0_combout\ $end
$var wire 1 /# \LM|ALT_INV_Equal1~1_combout\ $end
$var wire 1 0# \LM|ALT_INV_Equal5~0_combout\ $end
$var wire 1 1# \LM|ALT_INV_Equal6~0_combout\ $end
$var wire 1 2# \LM|ALT_INV_Equal0~0_combout\ $end
$var wire 1 3# \LM|ALT_INV_Equal1~0_combout\ $end
$var wire 1 4# \pc1|ALT_INV_Mux3~0_combout\ $end
$var wire 1 5# \pc1|ALT_INV_Mux2~0_combout\ $end
$var wire 1 6# \po1|cmpMenor|ALT_INV_lt~1_combout\ $end
$var wire 1 7# \po1|cmpMenor|ALT_INV_lt~0_combout\ $end
$var wire 1 8# \po1|cmpMenor|ALT_INV_LessThan0~1_combout\ $end
$var wire 1 9# \po1|cmpMenor|ALT_INV_LessThan0~0_combout\ $end
$var wire 1 :# \ft|ALT_INV_state_reg\ [5] $end
$var wire 1 ;# \ft|ALT_INV_state_reg\ [4] $end
$var wire 1 <# \ft|ALT_INV_state_reg\ [3] $end
$var wire 1 =# \ft|ALT_INV_state_reg\ [2] $end
$var wire 1 ># \ft|ALT_INV_state_reg\ [1] $end
$var wire 1 ?# \ft|ALT_INV_state_reg\ [0] $end
$var wire 1 @# \pc1|ALT_INV_Mux0~0_combout\ $end
$var wire 1 A# \po1|cmpMaior|ALT_INV_LessThan0~2_combout\ $end
$var wire 1 B# \po1|cmpMaior|ALT_INV_LessThan0~1_combout\ $end
$var wire 1 C# \po1|r1|ALT_INV_q\ [6] $end
$var wire 1 D# \po1|r1|ALT_INV_q\ [5] $end
$var wire 1 E# \po1|r1|ALT_INV_q\ [4] $end
$var wire 1 F# \po1|r1|ALT_INV_q\ [3] $end
$var wire 1 G# \po1|r1|ALT_INV_q\ [2] $end
$var wire 1 H# \po1|r1|ALT_INV_q\ [1] $end
$var wire 1 I# \po1|r1|ALT_INV_q\ [0] $end
$var wire 1 J# \po1|cmpMaior|ALT_INV_LessThan0~0_combout\ $end
$var wire 1 K# \po1|rg|ALT_INV_q\ [7] $end
$var wire 1 L# \po1|rg|ALT_INV_q\ [6] $end
$var wire 1 M# \po1|rg|ALT_INV_q\ [5] $end
$var wire 1 N# \po1|rg|ALT_INV_q\ [4] $end
$var wire 1 O# \po1|rg|ALT_INV_q\ [3] $end
$var wire 1 P# \po1|rg|ALT_INV_q\ [2] $end
$var wire 1 Q# \po1|rg|ALT_INV_q\ [1] $end
$var wire 1 R# \po1|rg|ALT_INV_q\ [0] $end
$upscope $end
$upscope $end
$enddefinitions $end
#0
$dumpvars
1!
0"
0;
1<
x=
1>
1?
1@
1A
1B
1C
0D
1E
x^
0_
0`
0a
1b
0c
0d
0e
0f
1g
0h
0i
0j
1k
0l
0m
0n
0o
0p
0q
0r
0s
0t
0u
0v
0w
0x
0y
xz
0{
x|
0}
x~
x!!
0"!
x#!
0$!
0%!
x&!
0'!
x(!
x)!
1*!
1+!
1,!
0-!
0.!
0/!
00!
11!
02!
03!
04!
x5!
06!
07!
08!
09!
0:!
0;!
x<!
0=!
0>!
0?!
1@!
1A!
0B!
0C!
0D!
0E!
0F!
1G!
0H!
1I!
0J!
0K!
xL!
0M!
0N!
0O!
0P!
0Q!
1R!
0S!
1T!
0U!
0V!
0W!
0X!
0Y!
0Z!
0[!
0\!
0]!
0^!
0_!
0`!
0a!
0b!
0c!
0\"
1g"
0h"
xi"
xj"
1k"
0l"
1m"
xn"
xo"
xp"
0q"
1r"
1s"
1t"
1u"
1v"
1w"
1x"
1y"
1z"
1{"
1|"
1}"
1~"
0!#
1"#
1##
1$#
0%#
1&#
0'#
1(#
x)#
1*#
1+#
1,#
x-#
1.#
1/#
x0#
11#
x2#
13#
14#
15#
16#
17#
18#
09#
1@#
1A#
1B#
0J#
0#
0$
0%
0&
0'
0(
0)
0*
0+
0,
0-
0.
0/
00
01
02
03
04
05
06
07
08
09
0:
0F
0G
0H
0I
0J
0K
0L
0M
0N
0O
0P
0Q
0R
0S
0T
0U
0V
0W
0X
0Y
0Z
0[
0\
0]
0d!
0e!
0f!
0g!
0h!
0i!
0j!
0k!
xl!
0m!
0n!
0o!
0p!
0q!
0r!
0s!
0t!
0u!
0v!
0w!
0x!
0y!
0z!
0{!
0|!
0}!
0~!
0!"
0""
0#"
0$"
0%"
0&"
0'"
0("
0)"
0*"
0+"
x,"
0-"
0."
0/"
00"
01"
02"
03"
x4"
05"
06"
07"
08"
09"
0:"
0;"
0<"
0="
0>"
0?"
0@"
0A"
0B"
0C"
xD"
xE"
xF"
xG"
xH"
xI"
xJ"
xK"
xL"
1M"
1N"
1O"
1P"
1Q"
1R"
1S"
1T"
1U"
1V"
1W"
1X"
1Y"
1Z"
1["
x]"
x^"
x_"
x`"
xa"
xb"
xc"
xd"
xe"
0f"
1:#
1;#
1<#
1=#
1>#
1?#
1C#
1D#
1E#
1F#
1G#
1H#
1I#
1K#
1L#
1M#
1N#
1O#
1P#
1Q#
1R#
$end
#10000
1"
1D
1_
1`
1y!
xs!
xq!
xG#
xI#
0?#
1c
0g
1j
1r
0*!
1:!
0@!
1J!
0T!
x?!
x7!
xB#
1%#
05#
1'#
0@#
1q"
0y"
0"#
0M"
0,!
x8!
1\"
1f"
xq
x{
x}
x"!
x$!
x4!
x,#
x/#
xm"
x+#
x1#
x3#
x0!
x.!
x2!
x%!
x'!
x-!
x/!
x6!
x(#
x.#
x*#
#20000
0"
0D
0_
0`
#30000
1"
1D
1_
1`
1x!
0y!
x1"
x3"
xT"
xR"
1?#
0>#
1g
0j
0k
0r
1w
1x
1*!
0:!
1@!
0J!
xE!
x7#
15#
0'#
1@#
0q"
0v"
0w"
1y"
1!#
1"#
1L"
1,!
0A!
1h"
0\"
0e"
0z
0|
0~
0"!
0%!
0(!
0-!
00!
04!
1D!
06#
1,#
1(#
10#
1*#
1m"
1o"
1n"
12#
0{
0}
0!!
xI!
1-#
1+#
11#
0.!
1&!
05!
0)#
0)!
#40000
0"
0D
0_
0`
#50000
1"
1D
1_
1`
1y!
0s!
xm!
xp!
0q!
xr!
xH#
1G#
xF#
xC#
1I#
0?#
1a
0c
0g
1j
1r
1t
0w
0*!
0@!
0?!
x1!
x3!
xB!
xG!
x9#
xA#
xJ#
1'#
1q"
1w"
0t"
0y"
0"#
0L"
0,!
1\"
1e"
xz
x|
x~
x"!
x%!
x(!
x-!
x0!
x4!
x,#
x(#
x0#
x*#
xm"
xo"
xn"
x2#
x{
x}
x!!
x&!
x.!
x5!
x)#
x-#
x+#
x1#
x)!
#60000
0"
0D
0_
0`
#70000
1"
1D
1_
1`
1w!
0x!
0y!
1?#
1>#
0=#
1g
1m
1s
0t
0x
1*!
1J!
05#
0q"
1v"
1t"
0x"
0~"
1K"
1,!
0\"
0d"
0z
0|
0!!
0'!
0(!
0-!
0/!
00!
04!
1,#
1(#
10#
1.#
1-#
1n"
12#
0{
0}
05!
1+#
11#
0.!
02!
#80000
0"
0D
0_
0`
#90000
1"
1D
1_
1`
1y!
xs!
0m!
0p!
1F#
1C#
xI#
0?#
1c
0g
0j
0m
0r
0*!
0J!
1S!
x?!
11!
03!
0B!
1G!
09#
1A#
0J#
0&#
15#
1q"
1y"
1~"
1"#
0K"
0,!
1\"
1d"
xz
x|
x!!
0%!
x'!
x(!
x-!
x/!
x0!
x4!
x,#
x(#
x0#
x.#
1*#
x-#
xn"
x2#
x{
x}
x.!
x2!
x5!
x+#
x1#
#100000
0"
0D
0_
0`
#110000
1"
1D
1_
1`
1x!
0y!
1?#
0>#
1g
1j
1r
0s
1t
1u
1*!
0S!
1&#
0q"
0s"
0t"
1x"
0y"
0"#
1J"
1,!
0\"
0c"
0z
0}
0!!
0#!
0(!
0-!
0/!
00!
1(#
10#
1p"
1-#
1+#
12#
0{
1&!
04!
1,#
0)#
11#
0.!
0)!
05!
#120000
0"
0D
0_
0`
#130000
1"
1D
1_
1`
1y!
0s!
xp!
xF#
1I#
0?#
0a
0c
1d
0g
0j
0r
0t
1w
0*!
0?!
1q"
0w"
1t"
1y"
1"#
0J"
0,!
1\"
1c"
xz
x}
x!!
x#!
0'!
x(!
x-!
x/!
x0!
x(#
x0#
1.#
xp"
x-#
x+#
x2#
x{
x5!
x&!
x4!
06!
x.!
x,#
x)#
x1#
x)!
x6!
#140000
0"
0D
0_
0`
#150000
1"
1D
1_
1`
0w!
0x!
1v!
0y!
1?#
0<#
1>#
1=#
1g
1o
0u
0w
1y
1*!
0q"
0r"
1w"
1s"
0|"
1I"
1,!
0\"
0b"
0z
0}
0!!
0(!
10#
1-#
1+#
12#
0{
11#
#160000
0"
0D
0_
0`
#170000
1"
1D
1_
1`
1y!
xs!
xn!
xm!
xo!
xq!
xG#
xE#
xC#
xD#
xI#
0?#
1c
0g
1j
0o
1r
0*!
1:!
1J!
x?!
xC!
xB!
x1!
x3!
xF!
xG!
x9#
xA#
xJ#
05#
0@#
1q"
0y"
1|"
0"#
0I"
0,!
1\"
1b"
xz
x}
x!!
x(!
0-!
0/!
1(#
x0#
x-#
x+#
x2#
x{
0.!
02!
x1#
x.!
x2!
#180000
0"
0D
0_
0`
#190000
1"
1D
1_
1`
1x!
0y!
1?#
0>#
1g
0j
1o
0r
1v
1w
0y
1*!
0:!
0J!
15#
1@#
0q"
1r"
0w"
0u"
1y"
0|"
1"#
1H"
1,!
0\"
0a"
0z
0~
0"!
0$!
1(!
04!
1,#
00#
1/#
1m"
1o"
12#
0{
0!!
1-#
11#
0.!
02!
05!
06!
#200000
0"
0D
0_
0`
#210000
1"
1D
1_
1`
1y!
0n!
0m!
0p!
0q!
0r!
1H#
1G#
1F#
1C#
1D#
0?#
1a
0c
0g
1j
0o
1r
1t
0w
0*!
0C!
0B!
1q"
1w"
0t"
0y"
1|"
0"#
0H"
0,!
1\"
1a"
xz
x~
x"!
x$!
0(!
00!
x4!
x,#
10#
x/#
xm"
xo"
x2#
x{
x!!
x5!
x6!
x-#
x1#
x.!
x2!
#220000
0"
0D
0_
0`
#230000
1"
1D
1_
1`
1w!
0x!
0y!
1?#
1>#
0=#
1g
1m
1n
1o
0t
0v
1*!
1J!
05#
0q"
1u"
1t"
0|"
0}"
0~"
1G"
1,!
0\"
0`"
0q
0}
0!!
0"!
0$!
04!
1,#
1/#
1m"
1-#
1+#
13#
1&!
05!
0)#
0)!
#240000
0"
0D
0_
0`
#250000
1"
1D
1_
1`
1y!
0s!
xn!
0o!
xp!
xr!
xH#
xF#
1E#
xD#
1I#
0?#
1c
0g
0j
0m
0o
0r
0*!
0J!
1S!
0?!
xC!
0F!
0&#
15#
1q"
1y"
1|"
1~"
1"#
0G"
0,!
1\"
1`"
xq
0{
x}
x!!
1"!
x$!
x4!
x,#
x/#
0m"
x-#
x+#
11#
x3#
0.!
02!
x&!
x5!
x)#
x)!
#260000
0"
0D
0_
0`
#270000
1"
1D
1_
1`
1x!
0y!
1?#
0>#
1g
1j
0n
1o
1p
1r
1t
1*!
0S!
1&#
0q"
0t"
0y"
0{"
0|"
1}"
0"#
1F"
1,!
0\"
0_"
0q
0!!
0#!
0$!
1/#
1p"
1-#
13#
04!
1,#
05!
06!
#280000
0"
0D
0_
0`
#290000
1"
1D
1_
1`
1y!
xs!
0n!
0p!
0r!
1H#
1F#
1D#
xI#
0?#
0a
0c
0d
1e
0g
0j
0o
0r
0t
1w
0*!
x?!
11!
03!
0C!
1G!
09#
1A#
0J#
1q"
0w"
1t"
1y"
1|"
1"#
0F"
0,!
1\"
1_"
xq
0|
x!!
x#!
x$!
x/#
xp"
x-#
1n"
x3#
0}
x5!
x4!
x,#
1+#
x6!
#300000
0"
0D
0_
0`
#310000
1"
1D
1_
1`
0w!
0x!
0v!
1u!
0y!
1?#
0;#
1<#
1>#
1=#
1g
1h
1i
0p
0w
1*!
0q"
1w"
1{"
0z"
0$#
1E"
1,!
0\"
0^"
0q
0#!
0$!
1/#
1p"
13#
04!
1,#
06!
#320000
0"
0D
0_
0`
#330000
1"
1D
1_
1`
1y!
xq!
xG#
0?#
1c
0g
0h
1j
1r
0*!
1:!
1J!
05#
0@#
1q"
0y"
0"#
1$#
0E"
0,!
1\"
1^"
xq
0~
x#!
x$!
x/#
xp"
1o"
x3#
0!!
x4!
x,#
1-#
x6!
#340000
0"
0D
0_
0`
#350000
1"
1D
1_
1`
1x!
0y!
1?#
0>#
1g
1h
0i
0j
1l
0r
1w
1*!
0:!
0J!
15#
1@#
0q"
0w"
1y"
0##
1"#
1z"
0$#
1D"
1,!
0\"
0]"
0q
0z
1#!
0$!
1/#
0p"
12#
13#
0&!
14!
0,#
1)#
1)!
15!
16!
#360000
0"
0D
0_
0`
#370000
1"
1D
1_
1`
1y!
1s!
1q!
1r!
0H#
0G#
0I#
0?#
1a
0c
0g
0h
1j
1r
1t
0w
0*!
1?!
17!
0E!
17#
0B#
1q"
1w"
0t"
0y"
0"#
1$#
0D"
0,!
18!
0I!
1\"
1]"
1q
1z
0#!
1$!
0/#
1p"
02#
03#
1&!
04!
1,#
0)#
0)!
05!
06!
#380000
0"
0D
0_
0`
#390000
1"
1D
1_
1`
1w!
0x!
0y!
19"
1:"
1;"
0["
0Z"
0Y"
1?#
1>#
0=#
1g
1h
0l
0t
0+!
1J!
1K!
07!
19!
1B#
04#
05#
1l"
1t"
1##
0$#
1L!
08!
0i"
#400000
0"
0D
0_
0`
