Relogio Digital/simulation/qsim/relogioDigital.msim.vcd
$comment
	File created using the following command:
		vcd file relogioDigital.msim.vcd -direction
$end
$date
	Thu Oct 31 07:40:28 2019
$end
$version
	ModelSim Version 10.5b
$end
$timescale
	1ps
$end

$scope module relogiodigital_vhd_vec_tst $end
$var wire 1 ! alarme $end
$var wire 1 " clock $end
$var wire 1 # H0 [6] $end
$var wire 1 $ H0 [5] $end
$var wire 1 % H0 [4] $end
$var wire 1 & H0 [3] $end
$var wire 1 ' H0 [2] $end
$var wire 1 ( H0 [1] $end
$var wire 1 ) H0 [0] $end
$var wire 1 * H1 [6] $end
$var wire 1 + H1 [5] $end
$var wire 1 , H1 [4] $end
$var wire 1 - H1 [3] $end
$var wire 1 . H1 [2] $end
$var wire 1 / H1 [1] $end
$var wire 1 0 H1 [0] $end
$var wire 1 1 M0 [6] $end
$var wire 1 2 M0 [5] $end
$var wire 1 3 M0 [4] $end
$var wire 1 4 M0 [3] $end
$var wire 1 5 M0 [2] $end
$var wire 1 6 M0 [1] $end
$var wire 1 7 M0 [0] $end
$var wire 1 8 M1 [6] $end
$var wire 1 9 M1 [5] $end
$var wire 1 : M1 [4] $end
$var wire 1 ; M1 [3] $end
$var wire 1 < M1 [2] $end
$var wire 1 = M1 [1] $end
$var wire 1 > M1 [0] $end
$var wire 1 ? RC $end
$var wire 1 @ sel $end
$var wire 1 A tc [1] $end
$var wire 1 B tc [0] $end
$var wire 1 C teclas [9] $end
$var wire 1 D teclas [8] $end
$var wire 1 E teclas [7] $end
$var wire 1 F teclas [6] $end
$var wire 1 G teclas [5] $end
$var wire 1 H teclas [4] $end
$var wire 1 I teclas [3] $end
$var wire 1 J teclas [2] $end
$var wire 1 K teclas [1] $end
$var wire 1 L teclas [0] $end

$scope module i1 $end
$var wire 1 M gnd $end
$var wire 1 N vcc $end
$var wire 1 O unknown $end
$var wire 1 P devoe $end
$var wire 1 Q devclrn $end
$var wire 1 R devpor $end
$var wire 1 S ww_devoe $end
$var wire 1 T ww_devclrn $end
$var wire 1 U ww_devpor $end
$var wire 1 V ww_teclas [9] $end
$var wire 1 W ww_teclas [8] $end
$var wire 1 X ww_teclas [7] $end
$var wire 1 Y ww_teclas [6] $end
$var wire 1 Z ww_teclas [5] $end
$var wire 1 [ ww_teclas [4] $end
$var wire 1 \ ww_teclas [3] $end
$var wire 1 ] ww_teclas [2] $end
$var wire 1 ^ ww_teclas [1] $end
$var wire 1 _ ww_teclas [0] $end
$var wire 1 ` ww_tc [1] $end
$var wire 1 a ww_tc [0] $end
$var wire 1 b ww_sel $end
$var wire 1 c ww_clock $end
$var wire 1 d ww_RC $end
$var wire 1 e ww_H1 [6] $end
$var wire 1 f ww_H1 [5] $end
$var wire 1 g ww_H1 [4] $end
$var wire 1 h ww_H1 [3] $end
$var wire 1 i ww_H1 [2] $end
$var wire 1 j ww_H1 [1] $end
$var wire 1 k ww_H1 [0] $end
$var wire 1 l ww_H0 [6] $end
$var wire 1 m ww_H0 [5] $end
$var wire 1 n ww_H0 [4] $end
$var wire 1 o ww_H0 [3] $end
$var wire 1 p ww_H0 [2] $end
$var wire 1 q ww_H0 [1] $end
$var wire 1 r ww_H0 [0] $end
$var wire 1 s ww_M1 [6] $end
$var wire 1 t ww_M1 [5] $end
$var wire 1 u ww_M1 [4] $end
$var wire 1 v ww_M1 [3] $end
$var wire 1 w ww_M1 [2] $end
$var wire 1 x ww_M1 [1] $end
$var wire 1 y ww_M1 [0] $end
$var wire 1 z ww_M0 [6] $end
$var wire 1 { ww_M0 [5] $end
$var wire 1 | ww_M0 [4] $end
$var wire 1 } ww_M0 [3] $end
$var wire 1 ~ ww_M0 [2] $end
$var wire 1 !! ww_M0 [1] $end
$var wire 1 "! ww_M0 [0] $end
$var wire 1 #! ww_alarme $end
$var wire 1 $! \teclas[0]~input_o\ $end
$var wire 1 %! \~QUARTUS_CREATED_GND~I_combout\ $end
$var wire 1 &! \sel~input_o\ $end
$var wire 1 '! \clock~input_o\ $end
$var wire 1 (! \clock~inputCLKENA0_outclk\ $end
$var wire 1 )! \c4|q[0]~_wirecell_combout\ $end
$var wire 1 *! \tc[0]~input_o\ $end
$var wire 1 +! \tc[1]~input_o\ $end
$var wire 1 ,! \teclas[7]~input_o\ $end
$var wire 1 -! \teclas[3]~input_o\ $end
$var wire 1 .! \teclas[5]~input_o\ $end
$var wire 1 /! \teclas[9]~input_o\ $end
$var wire 1 0! \teclas[1]~input_o\ $end
$var wire 1 1! \ct|s4~combout\ $end
$var wire 1 2! \dm|d4|s4~0_combout\ $end
$var wire 1 3! \c4|Add0~1_combout\ $end
$var wire 1 4! \teclas[6]~input_o\ $end
$var wire 1 5! \teclas[2]~input_o\ $end
$var wire 1 6! \dm|d3|s4~0_combout\ $end
$var wire 1 7! \RC~input_o\ $end
$var wire 1 8! \c2|q[2]~0_combout\ $end
$var wire 1 9! \c3|q[0]~_wirecell_combout\ $end
$var wire 1 :! \dm|d4|s3~0_combout\ $end
$var wire 1 ;! \c3|Add0~1_combout\ $end
$var wire 1 <! \dm|d3|s3~0_combout\ $end
$var wire 1 =! \c2|q[0]~_wirecell_combout\ $end
$var wire 1 >! \dm|d4|s2~0_combout\ $end
$var wire 1 ?! \c2|Add0~0_combout\ $end
$var wire 1 @! \teclas[4]~input_o\ $end
$var wire 1 A! \dm|d2|s2~0_combout\ $end
$var wire 1 B! \c1|q[0]~_wirecell_combout\ $end
$var wire 1 C! \dm|d4|s1~0_combout\ $end
$var wire 1 D! \c1|Add0~1_combout\ $end
$var wire 1 E! \dm|d3|s1~0_combout\ $end
$var wire 1 F! \ce|C[7]~8_combout\ $end
$var wire 1 G! \c1|Add0~2_combout\ $end
$var wire 1 H! \teclas[8]~input_o\ $end
$var wire 1 I! \dm|d1|s1~0_combout\ $end
$var wire 1 J! \ctrl|Equal0~0_combout\ $end
$var wire 1 K! \c1|Add0~0_combout\ $end
$var wire 1 L! \dm|d2|s1~0_combout\ $end
$var wire 1 M! \ce|C[5]~6_combout\ $end
$var wire 1 N! \ce|C[5]~7_combout\ $end
$var wire 1 O! \c2|Add0~2_combout\ $end
$var wire 1 P! \dm|d1|s2~0_combout\ $end
$var wire 1 Q! \ctrl|Equal1~0_combout\ $end
$var wire 1 R! \c2|Add0~1_combout\ $end
$var wire 1 S! \dm|d3|s2~0_combout\ $end
$var wire 1 T! \ce|C[3]~3_combout\ $end
$var wire 1 U! \ce|C[5]~2_combout\ $end
$var wire 1 V! \ce|C[3]~5_combout\ $end
$var wire 1 W! \c3|Add0~0_combout\ $end
$var wire 1 X! \dm|d2|s3~0_combout\ $end
$var wire 1 Y! \c3|Add0~2_combout\ $end
$var wire 1 Z! \dm|d1|s3~0_combout\ $end
$var wire 1 [! \c4|Add0~2_combout\ $end
$var wire 1 \! \dm|d1|s4~0_combout\ $end
$var wire 1 ]! \ctrl|Equal2~1_combout\ $end
$var wire 1 ^! \ctrl|E~0_combout\ $end
$var wire 1 _! \ce|C[1]~0_combout\ $end
$var wire 1 `! \ce|C[1]~1_combout\ $end
$var wire 1 a! \ce|C[1]~4_combout\ $end
$var wire 1 b! \ctrl|Equal2~0_combout\ $end
$var wire 1 c! \c4|Add0~0_combout\ $end
$var wire 1 d! \dm|d2|s4~0_combout\ $end
$var wire 1 e! \ce|C[0]~9_combout\ $end
$var wire 1 f! \mt4|S[2]~0_combout\ $end
$var wire 1 g! \mt4|S[1]~2_combout\ $end
$var wire 1 h! \dc1|g~0_combout\ $end
$var wire 1 i! \mt4|S[0]~1_combout\ $end
$var wire 1 j! \dc1|a~combout\ $end
$var wire 1 k! \dc1|b~combout\ $end
$var wire 1 l! \dc1|c~combout\ $end
$var wire 1 m! \dc1|d~0_combout\ $end
$var wire 1 n! \dc1|e~0_combout\ $end
$var wire 1 o! \dc1|f~0_combout\ $end
$var wire 1 p! \dc1|g~1_combout\ $end
$var wire 1 q! \ce|C[2]~10_combout\ $end
$var wire 1 r! \mt3|S[2]~1_combout\ $end
$var wire 1 s! \mt3|S[0]~0_combout\ $end
$var wire 1 t! \dc2|a~0_combout\ $end
$var wire 1 u! \mt3|S[1]~2_combout\ $end
$var wire 1 v! \dc2|a~combout\ $end
$var wire 1 w! \dc2|b~combout\ $end
$var wire 1 x! \dc2|c~combout\ $end
$var wire 1 y! \dc2|d~0_combout\ $end
$var wire 1 z! \dc2|e~0_combout\ $end
$var wire 1 {! \dc2|f~0_combout\ $end
$var wire 1 |! \dc2|g~0_combout\ $end
$var wire 1 }! \ce|C[4]~11_combout\ $end
$var wire 1 ~! \mt2|S[0]~1_combout\ $end
$var wire 1 !" \mt2|S[1]~2_combout\ $end
$var wire 1 "" \dc3|g~0_combout\ $end
$var wire 1 #" \mt2|S[2]~0_combout\ $end
$var wire 1 $" \dc3|a~combout\ $end
$var wire 1 %" \dc3|b~combout\ $end
$var wire 1 &" \dc3|c~combout\ $end
$var wire 1 '" \dc3|d~0_combout\ $end
$var wire 1 (" \dc3|e~0_combout\ $end
$var wire 1 )" \dc3|f~0_combout\ $end
$var wire 1 *" \dc3|g~1_combout\ $end
$var wire 1 +" \ce|C[6]~12_combout\ $end
$var wire 1 ," \mt1|S[1]~2_combout\ $end
$var wire 1 -" \dc4|g~0_combout\ $end
$var wire 1 ." \mt1|S[0]~1_combout\ $end
$var wire 1 /" \mt1|S[2]~0_combout\ $end
$var wire 1 0" \dc4|a~combout\ $end
$var wire 1 1" \dc4|b~combout\ $end
$var wire 1 2" \dc4|c~combout\ $end
$var wire 1 3" \dc4|d~0_combout\ $end
$var wire 1 4" \dc4|e~0_combout\ $end
$var wire 1 5" \dc4|f~0_combout\ $end
$var wire 1 6" \dc4|g~1_combout\ $end
$var wire 1 7" \comp|S~4_combout\ $end
$var wire 1 8" \comp|S~0_combout\ $end
$var wire 1 9" \comp|Equal3~0_combout\ $end
$var wire 1 :" \comp|S~2_combout\ $end
$var wire 1 ;" \comp|S~1_combout\ $end
$var wire 1 <" \comp|S~3_combout\ $end
$var wire 1 =" \comp|S~combout\ $end
$var wire 1 >" \c4|q\ [3] $end
$var wire 1 ?" \c4|q\ [2] $end
$var wire 1 @" \c4|q\ [1] $end
$var wire 1 A" \c4|q\ [0] $end
$var wire 1 B" \r4|q\ [3] $end
$var wire 1 C" \r4|q\ [2] $end
$var wire 1 D" \r4|q\ [1] $end
$var wire 1 E" \r4|q\ [0] $end
$var wire 1 F" \r3|q\ [3] $end
$var wire 1 G" \r3|q\ [2] $end
$var wire 1 H" \r3|q\ [1] $end
$var wire 1 I" \r3|q\ [0] $end
$var wire 1 J" \r1|q\ [3] $end
$var wire 1 K" \r1|q\ [2] $end
$var wire 1 L" \r1|q\ [1] $end
$var wire 1 M" \r1|q\ [0] $end
$var wire 1 N" \c3|q\ [3] $end
$var wire 1 O" \c3|q\ [2] $end
$var wire 1 P" \c3|q\ [1] $end
$var wire 1 Q" \c3|q\ [0] $end
$var wire 1 R" \r2|q\ [3] $end
$var wire 1 S" \r2|q\ [2] $end
$var wire 1 T" \r2|q\ [1] $end
$var wire 1 U" \r2|q\ [0] $end
$var wire 1 V" \c2|q\ [3] $end
$var wire 1 W" \c2|q\ [2] $end
$var wire 1 X" \c2|q\ [1] $end
$var wire 1 Y" \c2|q\ [0] $end
$var wire 1 Z" \c1|q\ [3] $end
$var wire 1 [" \c1|q\ [2] $end
$var wire 1 \" \c1|q\ [1] $end
$var wire 1 ]" \c1|q\ [0] $end
$var wire 1 ^" \ce|C\ [7] $end
$var wire 1 _" \ce|C\ [6] $end
$var wire 1 `" \ce|C\ [5] $end
$var wire 1 a" \ce|C\ [4] $end
$var wire 1 b" \ce|C\ [3] $end
$var wire 1 c" \ce|C\ [2] $end
$var wire 1 d" \ce|C\ [1] $end
$var wire 1 e" \ce|C\ [0] $end
$var wire 1 f" \ctrl|E\ [3] $end
$var wire 1 g" \ctrl|E\ [2] $end
$var wire 1 h" \ctrl|E\ [1] $end
$var wire 1 i" \ctrl|E\ [0] $end
$var wire 1 j" \ALT_INV_clock~inputCLKENA0_outclk\ $end
$var wire 1 k" \ALT_INV_teclas[8]~input_o\ $end
$var wire 1 l" \ALT_INV_teclas[2]~input_o\ $end
$var wire 1 m" \ALT_INV_teclas[9]~input_o\ $end
$var wire 1 n" \ALT_INV_teclas[3]~input_o\ $end
$var wire 1 o" \ALT_INV_teclas[1]~input_o\ $end
$var wire 1 p" \ALT_INV_RC~input_o\ $end
$var wire 1 q" \ALT_INV_tc[1]~input_o\ $end
$var wire 1 r" \ALT_INV_tc[0]~input_o\ $end
$var wire 1 s" \ALT_INV_teclas[7]~input_o\ $end
$var wire 1 t" \ALT_INV_teclas[5]~input_o\ $end
$var wire 1 u" \ALT_INV_teclas[6]~input_o\ $end
$var wire 1 v" \ALT_INV_teclas[4]~input_o\ $end
$var wire 1 w" \ALT_INV_sel~input_o\ $end
$var wire 1 x" \ctrl|ALT_INV_E\ [3] $end
$var wire 1 y" \ctrl|ALT_INV_E\ [2] $end
$var wire 1 z" \ctrl|ALT_INV_E\ [1] $end
$var wire 1 {" \ctrl|ALT_INV_E\ [0] $end
$var wire 1 |" \ce|ALT_INV_C\ [6] $end
$var wire 1 }" \ce|ALT_INV_C\ [5] $end
$var wire 1 ~" \ce|ALT_INV_C\ [4] $end
$var wire 1 !# \ce|ALT_INV_C\ [3] $end
$var wire 1 "# \ce|ALT_INV_C\ [2] $end
$var wire 1 ## \ce|ALT_INV_C\ [1] $end
$var wire 1 $# \ce|ALT_INV_C\ [0] $end
$var wire 1 %# \ctrl|ALT_INV_Equal0~0_combout\ $end
$var wire 1 &# \ce|ALT_INV_C[6]~12_combout\ $end
$var wire 1 '# \ctrl|ALT_INV_Equal1~0_combout\ $end
$var wire 1 (# \ce|ALT_INV_C[4]~11_combout\ $end
$var wire 1 )# \ctrl|ALT_INV_E~0_combout\ $end
$var wire 1 *# \ctrl|ALT_INV_Equal2~1_combout\ $end
$var wire 1 +# \ce|ALT_INV_C[2]~10_combout\ $end
$var wire 1 ,# \ctrl|ALT_INV_Equal2~0_combout\ $end
$var wire 1 -# \ce|ALT_INV_C[0]~9_combout\ $end
$var wire 1 .# \ce|ALT_INV_C[5]~6_combout\ $end
$var wire 1 /# \ct|ALT_INV_s4~combout\ $end
$var wire 1 0# \ce|ALT_INV_C[3]~3_combout\ $end
$var wire 1 1# \ce|ALT_INV_C[5]~2_combout\ $end
$var wire 1 2# \ce|ALT_INV_C[1]~1_combout\ $end
$var wire 1 3# \ce|ALT_INV_C[1]~0_combout\ $end
$var wire 1 4# \comp|ALT_INV_S~4_combout\ $end
$var wire 1 5# \comp|ALT_INV_S~3_combout\ $end
$var wire 1 6# \comp|ALT_INV_S~2_combout\ $end
$var wire 1 7# \comp|ALT_INV_S~1_combout\ $end
$var wire 1 8# \comp|ALT_INV_S~0_combout\ $end
$var wire 1 9# \comp|ALT_INV_Equal3~0_combout\ $end
$var wire 1 :# \dc4|ALT_INV_g~0_combout\ $end
$var wire 1 ;# \mt1|ALT_INV_S[1]~2_combout\ $end
$var wire 1 <# \mt1|ALT_INV_S[0]~1_combout\ $end
$var wire 1 =# \mt1|ALT_INV_S[2]~0_combout\ $end
$var wire 1 ># \dc3|ALT_INV_g~0_combout\ $end
$var wire 1 ?# \mt2|ALT_INV_S[1]~2_combout\ $end
$var wire 1 @# \mt2|ALT_INV_S[0]~1_combout\ $end
$var wire 1 A# \mt2|ALT_INV_S[2]~0_combout\ $end
$var wire 1 B# \dc2|ALT_INV_a~0_combout\ $end
$var wire 1 C# \mt3|ALT_INV_S[1]~2_combout\ $end
$var wire 1 D# \mt3|ALT_INV_S[2]~1_combout\ $end
$var wire 1 E# \mt3|ALT_INV_S[0]~0_combout\ $end
$var wire 1 F# \dc1|ALT_INV_g~0_combout\ $end
$var wire 1 G# \mt4|ALT_INV_S[1]~2_combout\ $end
$var wire 1 H# \mt4|ALT_INV_S[0]~1_combout\ $end
$var wire 1 I# \mt4|ALT_INV_S[2]~0_combout\ $end
$var wire 1 J# \c1|ALT_INV_q\ [3] $end
$var wire 1 K# \c1|ALT_INV_q\ [2] $end
$var wire 1 L# \c1|ALT_INV_q\ [1] $end
$var wire 1 M# \c1|ALT_INV_q\ [0] $end
$var wire 1 N# \r1|ALT_INV_q\ [3] $end
$var wire 1 O# \r1|ALT_INV_q\ [2] $end
$var wire 1 P# \r1|ALT_INV_q\ [1] $end
$var wire 1 Q# \r1|ALT_INV_q\ [0] $end
$var wire 1 R# \c2|ALT_INV_q\ [3] $end
$var wire 1 S# \c2|ALT_INV_q\ [2] $end
$var wire 1 T# \c2|ALT_INV_q\ [1] $end
$var wire 1 U# \c2|ALT_INV_q\ [0] $end
$var wire 1 V# \r2|ALT_INV_q\ [3] $end
$var wire 1 W# \r2|ALT_INV_q\ [2] $end
$var wire 1 X# \r2|ALT_INV_q\ [1] $end
$var wire 1 Y# \r2|ALT_INV_q\ [0] $end
$var wire 1 Z# \c3|ALT_INV_q\ [3] $end
$var wire 1 [# \c3|ALT_INV_q\ [2] $end
$var wire 1 \# \c3|ALT_INV_q\ [1] $end
$var wire 1 ]# \c3|ALT_INV_q\ [0] $end
$var wire 1 ^# \r3|ALT_INV_q\ [3] $end
$var wire 1 _# \r3|ALT_INV_q\ [2] $end
$var wire 1 `# \r3|ALT_INV_q\ [1] $end
$var wire 1 a# \r3|ALT_INV_q\ [0] $end
$var wire 1 b# \c4|ALT_INV_q\ [3] $end
$var wire 1 c# \c4|ALT_INV_q\ [2] $end
$var wire 1 d# \c4|ALT_INV_q\ [1] $end
$var wire 1 e# \c4|ALT_INV_q\ [0] $end
$var wire 1 f# \r4|ALT_INV_q\ [3] $end
$var wire 1 g# \r4|ALT_INV_q\ [2] $end
$var wire 1 h# \r4|ALT_INV_q\ [1] $end
$var wire 1 i# \r4|ALT_INV_q\ [0] $end
$upscope $end
$upscope $end
$enddefinitions $end
#0
$dumpvars
1!
0"
0?
1@
0M
1N
xO
1P
1Q
1R
1S
1T
1U
1b
0c
0d
1#!
0$!
x%!
1&!
0'!
0(!
1)!
0*!
0+!
0,!
0-!
0.!
0/!
00!
11!
02!
03!
04!
05!
06!
07!
08!
19!
0:!
0;!
0<!
1=!
0>!
0?!
0@!
0A!
1B!
0C!
0D!
0E!
1F!
0G!
0H!
0I!
0J!
0K!
0L!
0M!
0N!
0O!
0P!
0Q!
0R!
0S!
0T!
0U!
0V!
0W!
0X!
0Y!
0Z!
0[!
0\!
0]!
0^!
0_!
0`!
0a!
0b!
0c!
0d!
0e!
0f!
0g!
1h!
0i!
1j!
1k!
1l!
1m!
1n!
1o!
0p!
0q!
0r!
0s!
1t!
0u!
1v!
1w!
1x!
1y!
1z!
1{!
0|!
0}!
0~!
0!"
1""
0#"
1$"
1%"
1&"
1'"
1("
1)"
0*"
1+"
0,"
1-"
0."
0/"
10"
11"
12"
13"
14"
15"
06"
17"
18"
09"
1:"
1;"
1<"
1="
1j"
1k"
1l"
1m"
1n"
1o"
1p"
1q"
1r"
1s"
1t"
1u"
1v"
0w"
1%#
0&#
1'#
1(#
1)#
1*#
1+#
1,#
1-#
1.#
0/#
10#
11#
12#
13#
04#
05#
06#
07#
08#
19#
0:#
1;#
1<#
1=#
0>#
1?#
1@#
1A#
0B#
1C#
1D#
1E#
0F#
1G#
1H#
1I#
0A
0B
0C
0D
0E
0F
0G
0H
0I
0J
0K
0L
0*
1+
1,
1-
1.
1/
10
0#
1$
1%
1&
1'
1(
1)
08
19
1:
1;
1<
1=
1>
01
12
13
14
15
16
17
0V
0W
0X
0Y
0Z
0[
0\
0]
0^
0_
0`
0a
0e
1f
1g
1h
1i
1j
1k
0l
1m
1n
1o
1p
1q
1r
0s
1t
1u
1v
1w
1x
1y
0z
1{
1|
1}
1~
1!!
1"!
0>"
0?"
0@"
0A"
0B"
0C"
0D"
0E"
0F"
0G"
0H"
0I"
0J"
0K"
0L"
0M"
0N"
0O"
0P"
0Q"
0R"
0S"
0T"
0U"
0V"
0W"
0X"
0Y"
0Z"
0["
0\"
0]"
x^"
x_"
x`"
xa"
xb"
xc"
xd"
xe"
1f"
1g"
1h"
1i"
0x"
0y"
0z"
0{"
x|"
x}"
x~"
x!#
x"#
x##
x$#
1J#
1K#
1L#
1M#
1N#
1O#
1P#
1Q#
1R#
1S#
1T#
1U#
1V#
1W#
1X#
1Y#
1Z#
1[#
1\#
1]#
1^#
1_#
1`#
1a#
1b#
1c#
1d#
1e#
1f#
1g#
1h#
1i#
$end
#10000
1"
1c
1'!
1(!
0j"
#20000
0"
1?
1H
0c
1d
1[
1@!
17!
0'!
0(!
0p"
0v"
1j"
1L!
18!
0F!
0e"
0c"
0a"
1_"
0|"
1~"
1"#
1$#
#30000
1"
1c
1'!
1(!
0j"
1K"
0O#
1/"
08"
18#
0=#
00"
03"
04"
16"
0="
0#!
1z
0|
0}
0"!
0!
07
04
03
11
#40000
0"
0H
1B
1I
0c
1\
0[
1a
1*!
0@!
1-!
0'!
0(!
0n"
1v"
0r"
1j"
1}!
0+"
0L!
01!
1S!
1/#
1&#
0(#
1a"
0_"
1>!
1|"
0~"
#50000
1"
1c
1'!
1(!
0j"
1U"
1T"
0X#
0Y#
1~!
1!"
0;"
17#
0?#
0@#
0("
0)"
1*"
1s
0t
0u
0:
09
18
#60000
0"
0B
0I
1A
1E
0c
0a
1`
0\
1X
1,!
0-!
1+!
0*!
0'!
0(!
1r"
0q"
1n"
0s"
1j"
1:!
1<!
0>!
0S!
1X!
1q!
0}!
1(#
0+#
1c"
0a"
1~"
0"#
#70000
1"
1c
1'!
1(!
0j"
1G"
1I"
1H"
0`#
0a#
0_#
1r!
1s!
0:"
1u!
0<"
15#
0C#
16#
0E#
0D#
0y!
0z!
0{!
0m
0n
0o
0&
0%
0$
#80000
0"
1B
0E
0c
1a
0X
0,!
1*!
0'!
0(!
0r"
1s"
1j"
11!
12!
0:!
0<!
0X!
1e!
0q!
1+#
0-#
0/#
02!
1e"
0c"
1"#
0$#
#90000
1"
1c
1'!
1(!
0j"
#100000
0"
0B
0A
0?
0c
0a
0`
0d
07!
0+!
0*!
0'!
0(!
1r"
1q"
1p"
1j"
08!
1F!
0e!
1+"
0&#
1-#
#110000
1"
1c
1'!
1(!
0j"
#120000
0"
0c
0'!
0(!
1j"
1]"
0M#
0B!
1D!
#130000
1"
1c
1'!
1(!
0j"
#140000
0"
0c
0'!
0(!
1j"
1\"
0]"
1M#
0L#
1B!
#150000
1"
1c
1'!
1(!
0j"
#160000
0"
0c
0'!
0(!
1j"
1]"
0M#
0B!
0D!
1K!
#170000
1"
1c
1'!
1(!
0j"
#180000
0"
0c
0'!
0(!
1j"
0\"
0]"
1["
0K#
1M#
1L#
1B!
18"
08#
#190000
1"
1c
1'!
1(!
0j"
#200000
0"
0c
0'!
0(!
1j"
1]"
0M#
0B!
1D!
08"
18#
#210000
1"
1c
1'!
1(!
0j"
#220000
0"
0c
0'!
0(!
1j"
1\"
0]"
1M#
0L#
1B!
#230000
1"
1c
1'!
1(!
0j"
#240000
0"
0c
0'!
0(!
1j"
1]"
0M#
0B!
0D!
1G!
0K!
#250000
1"
1c
1'!
1(!
0j"
#260000
0"
0c
0'!
0(!
1j"
0\"
1Z"
0]"
0["
1K#
1M#
0J#
1L#
1B!
#270000
1"
1c
1'!
1(!
0j"
#280000
0"
0c
0'!
0(!
1j"
1]"
0M#
0B!
1D!
1N!
1U!
01#
#290000
1"
1c
1'!
1(!
0j"
#300000
0"
0c
0'!
0(!
1j"
1\"
0]"
1Y"
0U#
1M#
0L#
1B!
1J!
0N!
0U!
0=!
1R!
11#
0%#
0f"
1x"
0\"
0Z"
1J#
1L#
0D!
0G!
0J!
1%#
1f"
0x"
#310000
1"
1c
1'!
1(!
0j"
#320000
0"
0c
0'!
0(!
1j"
1]"
0M#
0B!
1D!
#330000
1"
1c
1'!
1(!
0j"
#340000
0"
0c
0'!
0(!
1j"
1\"
0]"
1M#
0L#
1B!
#350000
1"
1c
1'!
1(!
0j"
#360000
0"
0c
0'!
0(!
1j"
1]"
0M#
0B!
0D!
1K!
#370000
1"
1c
1'!
1(!
0j"
#380000
0"
0c
0'!
0(!
1j"
0\"
0]"
1["
0K#
1M#
1L#
1B!
18"
08#
#390000
1"
1c
1'!
1(!
0j"
#400000
0"
0c
0'!
0(!
1j"
1]"
0M#
0B!
1D!
08"
18#
#410000
1"
1c
1'!
1(!
0j"
#420000
0"
0c
0'!
0(!
1j"
1\"
0]"
1M#
0L#
1B!
#430000
1"
1c
1'!
1(!
0j"
#440000
0"
0c
0'!
0(!
1j"
1]"
0M#
0B!
0D!
1G!
0K!
#450000
1"
1c
1'!
1(!
0j"
#460000
0"
0c
0'!
0(!
1j"
0\"
1Z"
0]"
0["
1K#
1M#
0J#
1L#
1B!
#470000
1"
1c
1'!
1(!
0j"
#480000
0"
0c
0'!
0(!
1j"
1]"
0M#
0B!
1D!
1N!
1U!
01#
#490000
1"
1c
1'!
1(!
0j"
#500000
0"
0c
0'!
0(!
1j"
1\"
0]"
0Y"
1X"
0T#
1U#
1M#
0L#
1B!
1J!
0N!
0U!
1=!
11#
0%#
0f"
1x"
0\"
0Z"
1J#
1L#
0D!
0G!
0J!
1%#
1f"
0x"
#510000
1"
1c
1'!
1(!
0j"
#520000
0"
0c
0'!
0(!
1j"
1]"
0M#
0B!
1D!
#530000
1"
1c
1'!
1(!
0j"
#540000
0"
0c
0'!
0(!
1j"
1\"
0]"
1M#
0L#
1B!
#550000
1"
1c
1'!
1(!
0j"
#560000
0"
0c
0'!
0(!
1j"
1]"
0M#
0B!
0D!
1K!
#570000
1"
1c
1'!
1(!
0j"
#580000
0"
0c
0'!
0(!
1j"
0\"
0]"
1["
0K#
1M#
1L#
1B!
18"
08#
#590000
1"
1c
1'!
1(!
0j"
#600000
0"
0c
0'!
0(!
1j"
1]"
0M#
0B!
1D!
08"
18#
#610000
1"
1c
1'!
1(!
0j"
#620000
0"
0c
0'!
0(!
1j"
1\"
0]"
1M#
0L#
1B!
#630000
1"
1c
1'!
1(!
0j"
#640000
0"
0c
0'!
0(!
1j"
1]"
0M#
0B!
0D!
1G!
0K!
#650000
1"
1c
1'!
1(!
0j"
#660000
0"
0c
0'!
0(!
1j"
0\"
1Z"
0]"
0["
1K#
1M#
0J#
1L#
1B!
#670000
1"
1c
1'!
1(!
0j"
#680000
0"
0c
0'!
0(!
1j"
1]"
0M#
0B!
1D!
1N!
1U!
01#
#690000
1"
1c
1'!
1(!
0j"
#700000
0"
0c
0'!
0(!
1j"
1\"
0]"
1Y"
0U#
1M#
0L#
1B!
1J!
0N!
0U!
0=!
1?!
0R!
11#
0%#
0f"
1x"
0\"
0Z"
1J#
1L#
0D!
0G!
0J!
1;"
07#
1%#
1f"
0x"
#710000
1"
1c
1'!
1(!
0j"
#720000
0"
0c
0'!
0(!
1j"
1]"
0M#
0B!
1D!
#730000
1"
1c
1'!
1(!
0j"
#740000
0"
0c
0'!
0(!
1j"
1\"
0]"
1M#
0L#
1B!
#750000
1"
1c
1'!
1(!
0j"
#760000
0"
0c
0'!
0(!
1j"
1]"
0M#
0B!
0D!
1K!
#770000
1"
1c
1'!
1(!
0j"
#780000
0"
0c
0'!
0(!
1j"
0\"
0]"
1["
0K#
1M#
1L#
1B!
18"
08#
#790000
1"
1c
1'!
1(!
0j"
#800000
0"
0c
0'!
0(!
1j"
1]"
0M#
0B!
1D!
08"
18#
#810000
1"
1c
1'!
1(!
0j"
#820000
0"
0c
0'!
0(!
1j"
1\"
0]"
1M#
0L#
1B!
#830000
1"
1c
1'!
1(!
0j"
#840000
0"
0c
0'!
0(!
1j"
1]"
0M#
0B!
0D!
1G!
0K!
#850000
1"
1c
1'!
1(!
0j"
#860000
0"
0c
0'!
0(!
1j"
0\"
1Z"
0]"
0["
1K#
1M#
0J#
1L#
0;"
1B!
17#
#870000
1"
1c
1'!
1(!
0j"
#880000
0"
0c
0'!
0(!
1j"
1]"
0M#
0B!
1D!
1N!
1U!
01#
#890000
1"
1c
1'!
1(!
0j"
#900000
0"
0c
0'!
0(!
1j"
1\"
0]"
1W"
0Y"
0X"
1T#
1U#
0S#
1M#
0L#
1B!
1J!
0N!
0U!
1=!
11#
0%#
0f"
1x"
0\"
0Z"
1J#
1L#
0D!
0G!
0J!
1%#
1f"
0x"
#910000
1"
1c
1'!
1(!
0j"
#920000
0"
0c
0'!
0(!
1j"
1]"
0M#
0B!
1D!
#930000
1"
1c
1'!
1(!
0j"
#940000
0"
0c
0'!
0(!
1j"
1\"
0]"
1M#
0L#
1B!
#950000
1"
1c
1'!
1(!
0j"
#960000
0"
0c
0'!
0(!
1j"
1]"
0M#
0B!
0D!
1K!
#970000
1"
1c
1'!
1(!
0j"
#980000
0"
0c
0'!
0(!
1j"
0\"
0]"
1["
0K#
1M#
1L#
1B!
18"
08#
#990000
1"
1c
1'!
1(!
0j"
#1000000
0"
0c
0'!
0(!
1j"
1]"
0M#
0B!
1D!
08"
18#
#1010000
1"
1c
1'!
1(!
0j"
#1020000
0"
0c
0'!
0(!
1j"
1\"
0]"
1M#
0L#
1B!
#1030000
1"
1c
1'!
1(!
0j"
#1040000
0"
0c
0'!
0(!
1j"
1]"
0M#
0B!
0D!
1G!
0K!
#1050000
1"
1c
1'!
1(!
0j"
#1060000
0"
0c
0'!
0(!
1j"
0\"
1Z"
0]"
0["
1K#
1M#
0J#
1L#
1B!
#1070000
1"
1c
1'!
1(!
0j"
#1080000
0"
0c
0'!
0(!
1j"
1]"
0M#
0B!
1D!
1N!
1U!
01#
#1090000
1"
1c
1'!
1(!
0j"
